%YAML 1.1
%TAG !u! tag:unity3d.com,2011:
--- !u!1045 &1
EditorBuildSettings:
  m_ObjectHideFlags: 0
  serializedVersion: 2
  m_Scenes:
  - enabled: 1
    path: Assets/[Scenes]/VREntryScene.unity
    guid: 7eae59281cd41154d8ed7d33549840ff
  - enabled: 1
    path: Assets/[Scenes]/MainScene.unity
    guid: 99c9720ab356a0642a771bea13969a05
  m_configObjects:
    Unity.XR.Oculus.Settings: {fileID: 11400000, guid: c91f2a80cb8dcc04f94e625899705bb0,
      type: 2}
    com.unity.xr.management.loader_settings: {fileID: 11400000, guid: 1601d2ee2f9052e49979d831c11ad444,
      type: 2}
    com.unity.xr.openxr.settings4: {fileID: 11400000, guid: a82857b368c008144a9404cc5e941fa2,
      type: 2}
